Introduction to treeco • treeco
…
Region: The benefits of an identical tree in two different regions will often differ. For example, a palm tree in California might not be as valuable as a palm tree on the east coast.

Guessing a missing name field

Given the data we have, we can’t extract the benefits, we’re missing too many fields. Fortunately, there is some info we can use in the docs, type ?trees in the R console to take a look. We see that these are Black Cherry trees. After some googling, I find that these trees were collected in the Allegheny National Forest in Pennsylvania. I’m going to add the common name as a field common and add a row number field rn. More on why rn is added later.

library(dplyr)
library(tibble)

trees <- trees %>% 
  mutate(common = "black cherry tree") %>% 
  rownames_to_column("rn") %>% 
  as_tibble() %>% 
  print()
#> # A tibble: 31 x 5
#>    rn    Girth Height Volume common           
#>    <chr> <dbl>  <dbl>  <dbl> <chr>            
#>  1 1       8.3     70   10.3 black cherry tree
#>  2 2       8.6     65   10.3 black cherry tree
#>  3 3       8.8     63   10.2 black cherry tree
#>  4 4      10.5     72   16.4 black cherry tree
#>  5 5      10.7     81   18.8 black cherry tree
#>  6 6      10.8     83   19.7 black cherry tree
#>  7 7      11       66   15.6 black cherry tree
#>  8 8      11       75   18.2 black cherry tree
#>  9 9      11.1     80   22.6 black cherry tree
#> 10 10     11.2     75   19.9 black cherry tree
#> # ... with 21 more rows
…
Since R is very strict, the value “black common tree” will not match i-Tree’s “Black cherry tree” because of the capital “B”. Even worse, i-Tree might call it “Black cherry” and omit the word “tree” which makes the link between the two that much more difficult to identify. The best treeco can do is quantify the similarity between the users data and that master species list and then link the most similar record found in i-Tree. It first does this for the common name field and then the botanical and this is why both fields are required, to maximize the number of matches. This is where eco_guess plays a role, for example:

library(treeco)

x <- c("common fig", "Commn FIG", "RED MAPLE")
eco_guess(x, "botanical")
#> [1] "Ficus carica" "Ficus carica" "Acer rubrum"

And for the trees dataset, I can do something like:

trees <- trees %>% 
  mutate(botanical = eco_guess(common, "botanical")) %>% 
  print()
#> # A tibble: 31 x 6
#>    rn    Girth Height Volume common            botanical      
#>    <chr> <dbl>  <dbl>  <dbl> <chr>             <chr>          
#>  1 1       8.3     70   10.3 black cherry tree Prunus serotina
#>  2 2       8.6     65   10.3 black cherry tree Prunus serotina
#>  3 3       8.8     63   10.2 black cherry tree Prunus serotina
#>  4 4      10.5     72   16.4 black cherry tree Prunus serotina
#>  5 5      10.7     81   18.8 black cherry tree Prunus serotina
#>  6 6      10.8     83   19.7 black cherry tree Prunus serotina
#>  7 7      11       66   15.6 black cherry tree Prunus serotina
#>  8 8      11       75   18.2 black cherry tree Prunus serotina
#>  9 9      11.1     80   22.6 black cherry tree Prunus serotina
#> 10 10     11.2     75   19.9 black cherry tree Prunus serotina
#> # ... with 21 more rows
…
Calculate the benefits

my_trees <- eco_run_all(
  data = trees, 
  common_col = "common", 
  botanical_col = "botanical", 
  dbh_col = "Girth", 
  region = "NoEastXXX"
  ) %>% 
  as_tibble() %>% 
  print()
#> Gathering species matches...
#> Gathering interpolation parameters...
#> Interpolating benefits...
#> # A tibble: 465 x 9
#>       id botanical  common   dbh benefit_value benefit unit  dollars rn   
#>    <int> <chr>      <chr>  <dbl>         <dbl> <chr>   <chr>   <dbl> <chr>
#>  1     1 Prunus se… Black…   8.3        0.277  aq nox… lb       1.27 1    
#>  2     1 Prunus se… Black…   8.3        0.067  aq nox… lb       0.31 1    
#>  3     1 Prunus se… Black…   8.3        0.154  aq ozo… lb       0.71 1    
#>  4     1 Prunus se… Black…   8.3        0.0183 aq pm1… lb       0.15 1    
#>  5     1 Prunus se… Black…   8.3        0.075  aq pm1… lb       0.62 1    
#>  6     1 Prunus se… Black…   8.3        0.123  aq sox… lb       0.43 1    
#>  7     1 Prunus se… Black…   8.3        0.0262 aq sox… lb       0.09 1    
#>  8     1 Prunus se… Black…   8.3        0.0112 aq voc… lb       0.03 1    
#>  9     1 Prunus se… Black…   8.3        0      bvoc    lb       0    1    
#> 10     1 Prunus se… Black…   8.3       84.4    co2 av… lb       0.28 1    
#> # ... with 455 more rows
…
